{
  "api_access_id": "50098121423305978852",
  "api_default_org": "Technical Blogs and Reports",
  "api_secret_key": "ZmgK3ZbLCE353O2KKPG#A0Tc1SBxjx0?quzee72I0PFIN1BDigB7Ng8xW7#DteAJ",
  "tc_api_path": "https://app.threatconnect.com/api",
  "tc_log_level": "debug",
  "tc_log_path": "log",
  "tc_owner": "Technical Blogs and Reports",
  "tc_proxy_host": "TC_PROXY_HOST",
  "tc_proxy_password": "TC_PROXY_PASSWORD",
  "tc_proxy_port": "TC_PROXY_PORT",
  "tc_proxy_tc": false,
  "tc_proxy_username": "TC_PROXY_USERNAME"
}
