{
    "id": 4642552797,
    "name": "Ziggy ransomware shuts down and releases victims' decryption keys",
    "ownerName": "Technical Blogs and Reports",
    "dateAdded": "2021-02-08T12: 31: 22Z",
    "webLink": "https://app.threatconnect.com/auth/incident/incident.xhtml?incident=4642552797",
    "attribute": [
        {
            "id": 4642552800,
            "type": "Entry ID",
            "value": "https://www.bleepingcomputer.com/news/security/ziggy-ransomware-shuts-down-and-releases-victims-decryption-keys/",
            "dateAdded": "2021-02-08T12:31:22Z",
            "lastModified": "2021-02-08T12:31:22Z",
            "displayed": true,
            "xid": "e336e2dd-5dfb-48cd-a33a-f8809e83e904:4642552800"
        },
        {
            "id": 4642552810,
            "type": "Source",
            "value": "https://www.bleepingcomputer.com/news/security/ziggy-ransomware-shuts-down-and-releases-victims-decryption-keys/",
            "dateAdded": "2021-02-08T12:31:22Z",
            "lastModified": "2021-02-08T12:31:22Z",
            "displayed": true,
            "xid": "e336e2dd-5dfb-48cd-a33a-f8809e83e904:4642552810"
        },
        {
            "id": 4642552813,
            "type": "Description",
            "value": "The Ziggy ransomware operation has shut down and released the victims\" decryption keys after concerns about recent law enforcement activity and guilt for encrypting victims.\n\nOver the weekend, security researcher [M. Shahpasandi](https://twitter.com/M_Shahpasandi) told BleepingComputer that the Ziggy Ransomware admin announced on Telegram that they were shutting down their operation and would be releasing all of the decryption keys.\n\n **Shut down announcement by Ziggy admin**\n\nIn an interview with BleepingComputer, the ransomware admin said they created the ransomware to generate money as they live in a \"third-world country.\"\n\nAfter feeling guilty about their 
    actions and concerns over recent l[aw enforcement operations against Emotet
            ](https: //www.bleepingcomputer.com/news/security/emotet-botnet-disrupted-after-global-takedown-operation/) and [Netwalker ransomware](https://www.bleepingcomputer.com/news/security/us-charges-netwalker-ransomware-affiliate-seizes-ransom-payments/), the admin decided to shut down and release all of the keys.\n\nToday, the Ziggy ransomware admin posted a SQL file containing 922 decryption keys for encrypted victims. For each victim, the SQL file lists three keys needed to decrypt their encrypted files.\n\n **SQL file containing Ziggy decryption keys**\n\nThe ransomware admin also posted a decryptor 
            [
                [VirusTotal
                ](https: //www.virustotal.com/gui/file/797bdab07c0b265bab51393b655f65b4c3c5bf433eff53906c29351e10d6b905/detection)] that victims can use with the keys listed in the SQL file.\n\n **Ziggy ransomware decryptor**\n\nIn addition to the decryptor and the SQL file, the ransomware admin shared the source code for a different decryptor with BleepingComputer that contains offline decryption keys.\n\nRansomware infections use offline decryption keys to decrypt victims infected while not being connected to the Internet or the command and control server was unreachable.\n\n **Source code for different Ziggy ransomware decryptor**\n\nThe ransomware admin also shared these 
    files with ransomware expert Michael Gillespie who told BleepingComputer that Emsisoft would be releasing a decryptor soon.\n\n\"The release of the keys, whether voluntarily or involuntarily, is 
    the best possible outcome. It means past victims can recover their data without needing to pay the ransom or use the dev’s decryptor, which could contain a backdoor and/or bugs. And, of course, 
    it also means there’s one less ransomware group to worry about.\"\n\n\"The recent arrest of individuals associated with the Emotet and Netwalker operation could be causing some actors to get cold 
    feet. If so, we could well see more groups ceasing operations and handing over the their keys. Fingers crossed,\" Emsisoft's Brett Callow told BleepingComputer.\n\nWhile the ransomware admin appears to be honest in their intent to shut down and release the keys, BleepingComputer always suggests waiting for a security company\"s decryptor rather than use one supplied by the threat actor.\n\nLast week, the [Fonix ransomware operation also shut down](https://www.bleepingcomputer.com/news/security/fonix-ransomware-shuts-down-and-releases-master-decryption-key/) and released keys 
    and decryptor. The Ziggy admin told BleepingComputer that they are friends with the Fonix ransomware group and are from the same country.\n", 
    "dateAdded": "2021-02-08T12: 31: 23Z",
                "lastModified": "2021-02-08T12: 31: 23Z",
                "displayed": true,
                "xid": "e336e2dd-5dfb-48cd-a33a-f8809e83e904: 4642552813"
            },
            {
                "id": 4642552816,
                "type": "Author Name",
                "value": "Lawrence Abrams",
                "dateAdded": "2021-02-08T12: 31: 24Z",
                "lastModified": "2021-02-08T12: 31: 24Z",
                "displayed": true,
                "xid": "e336e2dd-5dfb-48cd-a33a-f8809e83e904: 4642552816"
            },
            {
                "id": 4642552819,
                "type": "Post Images",
                "value": "- https: //www.bleepstatic.com/content/hl-images/2021/02/07/brighter-key.jpg\n- https://www.bleepstatic.com/images/news/ransomware/z/zigg-ransomware-decryption-keys/shutdown-announcement.jpg\n- https://www.bleepstatic.com/images/news/ransomware/z/zigg-ransomware-decryption-keys/sql-file.jpg\n- https://www.bleepstatic.com/images/news/ransomware/z/zigg-ransomware-decryption-keys/decryptor.jpg\n- 
    https: //www.bleepstatic.com/images/news/ransomware/z/zigg-ransomware-decryption-keys/source-code.jpg", 
                "dateAdded": "2021-02-08T12:31:24Z",
                "lastModified": "2021-02-08T12:31:24Z",
                "displayed": true,
                "xid": "e336e2dd-5dfb-48cd-a33a-f8809e83e904:4642552819"
            }
        ],
        "tag": [
            {
                "name": "BLOG: BleepingComputer",
                "webLink": "https://app.threatconnect.com/auth/tags/tag.xhtml?tag=BLOG%3A+BleepingComputer&owner=Technical+Blogs+and+Reports"
            },
            {
                "name": "security",
                "webLink": "https://app.threatconnect.com/auth/tags/tag.xhtml?tag=security&owner=Technical+Blogs+and+Reports"
            }
        ],
        "xid": "e336e2dd-5dfb-48cd-a33a-f8809e83e904:4642552797",
        "eventDate": "2021-02-08T12:01:22Z",
        "status": "None"
    }