{
    "Ransomware": [
        {
            "ransomware": 5339
        },
        {
            "Ryuk": 315
        },
        {
            "Locky": 519
        },
        {
            "Petya": 325
        },
        {
            "CryptoLocker": 135
        },
        {
            "SamSam": 65
        },
        {
            "WannaCry": 518
        },
        {
            "LockerGoga": 36
        },
        {
            "DoppelPaymer": 66
        },
        {
            "Egregor": 66
        },
        {
            "Bad Rabbit": 27
        },
        {
            "CryptoWall": 79
        }
    ],
    "Dropper": [
        {
            "Dropper": 1099
        }
    ],
    "Banking Trojan": [
        {
            "banking trojan": 1216
        },
        {
            "Gozi": 164
        },
        {
            "ZeuS": 468
        },
        {
            "Dridex": 447
        },
        {
            "Ursnif": 455
        },
        {
            "Emotet": 1041
        },
        {
            "Trickbot": 919
        },
        {
            "Carberp": 44
        },
        {
            "Citadel": 46
        }
    ],
    "Botnet": [
        {
            "botnet": 1879
        },
        {
            "Mirai": 324
        },
        {
            "3ve": 74
        },
        {
            "Necurs": 204
        },
        {
            "Grum": 23
        }
    ],
    "Finance Industry": [
        {
            "target banks": 9
        },
        {
            "targets banks": 5
        },
        {
            "targeting banks": 44
        },
        {
            "target financial": 13
        },
        {
            "targets financial": 21
        },
        {
            "targeting financial": 75
        },
        {
            "target finance": 0
        },
        {
            "targets finance": 0
        },
        {
            "targeting finance": 0
        },
        {
            "financial institutions": 411
        }
    ]
}